%YAML 1.1
%TAG !u! tag:unity3d.com,2011:
--- !u!114 &-1492474392915756942
MonoBehaviour:
  m_ObjectHideFlags: 0
  m_CorrespondingSourceObject: {fileID: 0}
  m_PrefabInstance: {fileID: 0}
  m_PrefabAsset: {fileID: 0}
  m_GameObject: {fileID: 6546700970366584761}
  m_Enabled: 1
  m_EditorHideFlags: 0
  m_Script: {fileID: 11500000, guid: b57224e7ae79b90478dce4499ef18859, type: 3}
  m_Name: 
  m_EditorClassIdentifier: 
  anglePerSecond: 30
--- !u!114 &-173684754702881901
MonoBehaviour:
  m_ObjectHideFlags: 0
  m_CorrespondingSourceObject: {fileID: 0}
  m_PrefabInstance: {fileID: 0}
  m_PrefabAsset: {fileID: 0}
  m_GameObject: {fileID: 6546700970366584761}
  m_Enabled: 1
  m_EditorHideFlags: 0
  m_Script: {fileID: 11500000, guid: 75597ab5cc434e66a7ef8c6aaaffe769, type: 3}
  m_Name: 
  m_EditorClassIdentifier: 
  m_rotationChangeOnTaken:
    serializedVersion: 2
    m_Curve:
    - serializedVersion: 3
      time: 0
      value: 1
      inSlope: 14.891329
      outSlope: 14.891329
      tangentMode: 0
      weightedMode: 0
      inWeight: 0
      outWeight: 0.51041305
    - serializedVersion: 3
      time: 0.20887387
      value: 17.380629
      inSlope: 94.26498
      outSlope: 94.26498
      tangentMode: 0
      weightedMode: 0
      inWeight: 1
      outWeight: 0.036967345
    - serializedVersion: 3
      time: 0.6565546
      value: 4.8761234
      inSlope: 2.0888324
      outSlope: 2.0888324
      tangentMode: 0
      weightedMode: 0
      inWeight: 0.33333334
      outWeight: 0.10439479
    - serializedVersion: 3
      time: 2.0043678
      value: 0.955531
      inSlope: 1.2056571
      outSlope: 1.2056571
      tangentMode: 0
      weightedMode: 0
      inWeight: 0.38512045
      outWeight: 0
    m_PreInfinity: 2
    m_PostInfinity: 2
    m_RotationOrder: 4
  m_scaleChangeOnTaken:
    serializedVersion: 2
    m_Curve:
    - serializedVersion: 3
      time: 0
      value: 1
      inSlope: -0.79607487
      outSlope: -0.79607487
      tangentMode: 34
      weightedMode: 0
      inWeight: 0
      outWeight: 0.33333334
    - serializedVersion: 3
      time: 1.2356503
      value: 0.01632984
      inSlope: 0.05042315
      outSlope: -0.048498325
      tangentMode: 1
      weightedMode: 0
      inWeight: 0.16013035
      outWeight: 0.09814934
    - serializedVersion: 3
      time: 2.000061
      value: 0.00093485694
      inSlope: -0.020139674
      outSlope: -0.020139674
      tangentMode: 34
      weightedMode: 0
      inWeight: 0.33333334
      outWeight: 0
    m_PreInfinity: 2
    m_PostInfinity: 2
    m_RotationOrder: 4
  m_animationTime: 0.7
--- !u!1001 &3025118016135798448
PrefabInstance:
  m_ObjectHideFlags: 0
  serializedVersion: 2
  m_Modification:
    m_TransformParent: {fileID: 0}
    m_Modifications:
    - target: {fileID: -4216859302048453862, guid: 4692d3987e3b6e74e9a8086b3cff91b8,
        type: 3}
      propertyPath: m_LocalPosition.x
      value: 0
      objectReference: {fileID: 0}
    - target: {fileID: -4216859302048453862, guid: 4692d3987e3b6e74e9a8086b3cff91b8,
        type: 3}
      propertyPath: m_LocalPosition.y
      value: 0
      objectReference: {fileID: 0}
    - target: {fileID: -4216859302048453862, guid: 4692d3987e3b6e74e9a8086b3cff91b8,
        type: 3}
      propertyPath: m_LocalPosition.z
      value: 0
      objectReference: {fileID: 0}
    - target: {fileID: -4216859302048453862, guid: 4692d3987e3b6e74e9a8086b3cff91b8,
        type: 3}
      propertyPath: m_LocalRotation.x
      value: 0
      objectReference: {fileID: 0}
    - target: {fileID: -4216859302048453862, guid: 4692d3987e3b6e74e9a8086b3cff91b8,
        type: 3}
      propertyPath: m_LocalRotation.y
      value: 0
      objectReference: {fileID: 0}
    - target: {fileID: -4216859302048453862, guid: 4692d3987e3b6e74e9a8086b3cff91b8,
        type: 3}
      propertyPath: m_LocalRotation.z
      value: 0
      objectReference: {fileID: 0}
    - target: {fileID: -4216859302048453862, guid: 4692d3987e3b6e74e9a8086b3cff91b8,
        type: 3}
      propertyPath: m_LocalRotation.w
      value: 1
      objectReference: {fileID: 0}
    - target: {fileID: -4216859302048453862, guid: 4692d3987e3b6e74e9a8086b3cff91b8,
        type: 3}
      propertyPath: m_RootOrder
      value: 0
      objectReference: {fileID: 0}
    - target: {fileID: -4216859302048453862, guid: 4692d3987e3b6e74e9a8086b3cff91b8,
        type: 3}
      propertyPath: m_LocalEulerAnglesHint.x
      value: 0
      objectReference: {fileID: 0}
    - target: {fileID: -4216859302048453862, guid: 4692d3987e3b6e74e9a8086b3cff91b8,
        type: 3}
      propertyPath: m_LocalEulerAnglesHint.y
      value: 0
      objectReference: {fileID: 0}
    - target: {fileID: -4216859302048453862, guid: 4692d3987e3b6e74e9a8086b3cff91b8,
        type: 3}
      propertyPath: m_LocalEulerAnglesHint.z
      value: 0
      objectReference: {fileID: 0}
    - target: {fileID: -4216859302048453862, guid: 4692d3987e3b6e74e9a8086b3cff91b8,
        type: 3}
      propertyPath: m_LocalScale.x
      value: 1
      objectReference: {fileID: 0}
    - target: {fileID: -4216859302048453862, guid: 4692d3987e3b6e74e9a8086b3cff91b8,
        type: 3}
      propertyPath: m_LocalScale.y
      value: 1
      objectReference: {fileID: 0}
    - target: {fileID: -4216859302048453862, guid: 4692d3987e3b6e74e9a8086b3cff91b8,
        type: 3}
      propertyPath: m_LocalScale.z
      value: 1
      objectReference: {fileID: 0}
    - target: {fileID: -1504981713932161579, guid: 4692d3987e3b6e74e9a8086b3cff91b8,
        type: 3}
      propertyPath: m_Materials.Array.data[0]
      value: 
      objectReference: {fileID: 2100000, guid: 65fe91761fcf18547b3b1210620cfac9, type: 2}
    - target: {fileID: -1504981713932161579, guid: 4692d3987e3b6e74e9a8086b3cff91b8,
        type: 3}
      propertyPath: m_ReceiveShadows
      value: 0
      objectReference: {fileID: 0}
    - target: {fileID: -1504981713932161579, guid: 4692d3987e3b6e74e9a8086b3cff91b8,
        type: 3}
      propertyPath: m_CastShadows
      value: 0
      objectReference: {fileID: 0}
    - target: {fileID: -927199367670048503, guid: 4692d3987e3b6e74e9a8086b3cff91b8,
        type: 3}
      propertyPath: m_Name
      value: Diamond
      objectReference: {fileID: 0}
    m_RemovedComponents: []
  m_SourcePrefab: {fileID: 100100000, guid: 4692d3987e3b6e74e9a8086b3cff91b8, type: 3}
--- !u!1 &6546700970366584761 stripped
GameObject:
  m_CorrespondingSourceObject: {fileID: -927199367670048503, guid: 4692d3987e3b6e74e9a8086b3cff91b8,
    type: 3}
  m_PrefabInstance: {fileID: 3025118016135798448}
  m_PrefabAsset: {fileID: 0}
